<svg xmlns="http://www.w3.org/2000/svg" width="137.593" height="115.668" viewBox="0 0 137.593 115.668">
  <g id="Group_1287" data-name="Group 1287" transform="translate(-448 -6839.972)">
    <g id="Group_1285" data-name="Group 1285" transform="translate(-199 4049.244)">
      <text id="Covent_Garden_Market_6_mins_walk_" data-name="Covent Garden Market
(6 mins walk)" transform="translate(647 2790.727)" fill="#00b0a9" font-size="12" font-family="Helvetica"><tspan x="7.806" y="9">Covent Garden Market</tspan><tspan x="33.162" y="22">(6 mins walk)</tspan></text>
    </g>
    <!-- <g id="Group_1286" data-name="Group 1286" transform="matrix(0.999, -0.035, 0.035, 0.999, 516, 6878.285)">
      <path id="Path_558" data-name="Path 558" d="M.052,0S-4.257,54.594,65.56,76.756" transform="translate(0 0)" fill="none" stroke="#00b0a9" stroke-linecap="round" stroke-width="1"/>
      <path id="Path_10635" data-name="Path 10635" d="M0,3.96V1.338L2.953,0" transform="translate(66.297 78.194) rotate(172)" fill="none" stroke="#00b0a9" stroke-linecap="round" stroke-linejoin="round" stroke-width="1"/>
    </g> -->
  </g>
</svg>
