<svg xmlns="http://www.w3.org/2000/svg" width="316.159" height="416.053" viewBox="0 0 316.159 416.053">
  <path id="Path_15" data-name="Path 15" d="M972.929,464.5s18.158,292.564-276.062,411.33" transform="translate(-694.264 -462.38)" fill="none" stroke="#fff" stroke-linecap="round" stroke-width="4"/>
  <path id="Path_16" data-name="Path 16" d="M1032,808l40,32,40-32" transform="translate(-658.968 -893.744) rotate(9)" fill="none" stroke="#fff" stroke-linecap="round" stroke-linejoin="round" stroke-width="4"/>
</svg>
