<svg xmlns="http://www.w3.org/2000/svg" width="122" height="119.861" viewBox="0 0 122 119.861">
  <g id="Group_1282" data-name="Group 1282" transform="translate(-624 -2786.495)">
    <text id="King_Street_5_mins_walk_" data-name="King Street
(5 mins walk)" transform="translate(624 2786.495)" fill="#00b0a9" font-size="12" font-family="Helvetica"><tspan x="31.316" y="9">King Street</tspan><tspan x="25.662" y="22">(5 mins walk)</tspan></text>
    <!-- <g id="Group_542" data-name="Group 542" transform="translate(686.653 2907.41) rotate(-178)">
      <path id="Path_558" data-name="Path 558" d="M.045,78.682S-3.673,22.718,56.563,0" transform="translate(0 4.269)" fill="none" stroke="#00b0a9" stroke-linecap="round" stroke-width="1"/>
      <path id="Path_10635" data-name="Path 10635" d="M0,0V5.171l5.339,2.64" transform="translate(56.601 8.478) rotate(-172)" fill="none" stroke="#00b0a9" stroke-linecap="round" stroke-linejoin="round" stroke-width="1"/>
    </g> -->
  </g>
</svg>
