<svg xmlns="http://www.w3.org/2000/svg" width="29.215" height="18.309" viewBox="0 0 29.215 18.309">
  <g id="North_sign" data-name="North sign" transform="translate(-570.6 -294.205)">
    <g id="Group_566" data-name="Group 566" transform="translate(580.847 294.7)">
      <path id="Path_3143" data-name="Path 3143" d="M598.689,312.019l8.515-8.587-8.8-8.732" transform="translate(-588.586 -294.7)" fill="none" stroke="#fff" stroke-linecap="round" stroke-linejoin="round" stroke-width="0.7"/>
      <line id="Line_8238" data-name="Line 8238" x2="18.618" transform="translate(0 8.732)" fill="none" stroke="#fff" stroke-linecap="round" stroke-linejoin="round" stroke-width="0.7"/>
    </g>
    <path id="Path_3144" data-name="Path 3144" d="M576.229,301v6.278L572.115,301H570.6v8.154h1.155v-6.639l4.4,6.639h1.155V301Z" transform="translate(0 -1.754)" fill="#fff"/>
  </g>
</svg>
