<svg width="31" height="56" viewBox="0 0 31 56" fill="none" xmlns="http://www.w3.org/2000/svg">
<path d="M0.0319824 11.311H18.744V0.498001L30.909 28.081L18.744 55.664V43.92H0.0319824V11.311Z" fill="url(#paint0_linear)"/>
<defs>
<linearGradient id="paint0_linear" x1="30.909" y1="28.081" x2="0.0319824" y2="28.081" gradientUnits="userSpaceOnUse">
<stop offset="0.388" stop-color="white"/>
<stop offset="1" stop-color="white" stop-opacity="0"/>
</linearGradient>
</defs>
</svg>
