<svg xmlns="http://www.w3.org/2000/svg" width="135" height="110.819" viewBox="0 0 135 110.819">
  <g id="Group_1220" data-name="Group 1220" transform="translate(-381 -1640.229)">
    <text id="Also_features_private_and_collaborative_spaces." data-name="Also features private and collaborative spaces." transform="translate(381 1640.229)" fill="#00b0a9" font-size="12" font-family="Helvetica"><tspan x="1.128" y="9">Also features private and </tspan><tspan x="11.47" y="22">collaborative spaces.</tspan></text>
    <!-- <g id="Group_542" data-name="Group 542" transform="translate(446.643 1675.229)">
      <path id="Path_558" data-name="Path 558" d="M696.913,464.5s-3.793,47.818,57.674,67.23" transform="translate(-696.867 -464.5)" fill="none" stroke="#00b0a9" stroke-linecap="round" stroke-width="1"/>
      <path id="Path_559" data-name="Path 559" d="M-.348,5.975,6.35-.341l8.607,8.7" transform="matrix(-0.454, 0.891, -0.891, -0.454, 60.355, 61.48)" fill="none" stroke="#00b0a9" stroke-linecap="round" stroke-linejoin="round" stroke-width="1"/>
    </g> -->
  </g>
</svg>
