<svg xmlns="http://www.w3.org/2000/svg" width="135" height="108.635" viewBox="0 0 135 108.635">
  <g id="Group_1279" data-name="Group 1279" transform="translate(-762 -2709)">
    <text id="The_Vaults_Leake_Street_15_mins_walk_" data-name="The Vaults, Leake Street
(15 mins walk)" transform="translate(762 2709)" fill="#00b0a9" font-size="12" font-family="Helvetica"><tspan x="1.904" y="9">The Vaults, Leake Street </tspan><tspan x="28.825" y="22">(15 mins walk)</tspan></text>
    <!-- <g id="Group_542" data-name="Group 542" transform="translate(769 2746)">
      <path id="Path_558" data-name="Path 558" d="M754.541,464.5s3.793,47.818-57.674,67.23" transform="translate(-693.771 -464.5)" fill="none" stroke="#00b0a9" stroke-linecap="round" stroke-width="1"/>
      <path id="Path_10635" data-name="Path 10635" d="M2,60.572v5.46l5.638,2.787" transform="translate(9.546 1.665) rotate(8)" fill="none" stroke="#00b0a9" stroke-linecap="round" stroke-linejoin="round" stroke-width="1"/>
    </g> -->
  </g>
</svg>
